/* emacs: this is -*- c++ -*- */
testChains = {
    //  "Offline",
    //  "Muons",
    //  "Electrons",
    //  "Truth",

#ifndef VTXANALYSIS

    "HLT_mu6_idperf_L1MU5VF:HLT_IDTrack_Muon_FTF:HLT_Roi_L2SAMuon",
    "HLT_mu6_idperf_L1MU5VF:HLT_IDTrack_Muon_IDTrig:HLT_Roi_L2SAMuon",
    "HLT_mu6_ivarmedium_L1MU5VF:HLT_IDTrack_MuonIso_FTF:HLT_Roi_MuonIso",
    "HLT_mu6_ivarmedium_L1MU5VF:HLT_IDTrack_MuonIso_IDTrig:HLT_Roi_MuonIso",

    "HLT_mu24_idperf_L1MU14FCH:HLT_IDTrack_Muon_FTF:HLT_Roi_L2SAMuon",
    "HLT_mu24_idperf_L1MU14FCH:HLT_IDTrack_Muon_IDTrig:HLT_Roi_L2SAMuon",
    "HLT_mu26_ivarmedium_L1MU14FCH:HLT_IDTrack_MuonIso_FTF:HLT_Roi_MuonIso",
    "HLT_mu26_ivarmedium_L1MU14FCH:HLT_IDTrack_MuonIso_IDTrig:HLT_Roi_MuonIso",
    "HLT_mu28_ivarmedium_L1MU14FCH:HLT_IDTrack_MuonIso_FTF:HLT_Roi_MuonIso",
    "HLT_mu28_ivarmedium_L1MU14FCH:HLT_IDTrack_MuonIso_IDTrig:HLT_Roi_MuonIso",
    "HLT_mu26_ivarperf_L1MU14FCH:HLT_IDTrack_MuonIso_FTF:HLT_Roi_MuonIso",
    "HLT_mu26_ivarperf_L1MU14FCH:HLT_IDTrack_MuonIso_IDTrig:HLT_Roi_MuonIso",

    "HLT_mu24_LRT_idperf_L1MU14FCH:HLT_IDTrack_MuonLRT_FTF:HLT_Roi_L2SAMuon_LRT",
    "HLT_mu6_LRT_idperf_L1MU5VF:HLT_IDTrack_MuonLRT_IDTrig:HLT_Roi_L2SAMuon_LRT",
    "HLT_mu6_LRT_idperf_L1MU5VF:HLT_IDTrack_MuonLRT_FTF:HLT_Roi_L2SAMuon_LRT",
    "HLT_mu6_idperf_L1MU5VF:HLT_IDTrack_Muon_IDTrig:HLT_Roi_L2SAMuon",

    "HLT_mu4_cosmic_L1MU3V:HLT_IDTrack_Cosmic_FTF",
    "HLT_mu4_cosmic_L1MU3V:HLT_IDTrack_Cosmic_IDTrig",
    "HLT_mu4_cosmic_L1MU3V:HLT_IDTrack_Cosmic_EFID",


    // "HLT_e17_lhvloose_nod0_L1EM15VH:HLT_IDTrack_Electron_FTF:HLT_Roi_FastElectron",
    // "HLT_e17_lhvloose_nod0_L1EM15VH:HLT_IDTrack_Electron_IDTrig",
    "HLT_e26_lhtight_gsf_ivarloose_L1EM22VHI:HLT_IDTrack_Electron_GSF",
    "HLT_e26_idperf_gsf_tight_L1EM22VHI:HLT_IDTrack_Electron_GSF",

    "HLT_e26_idperf_loose_L1EM24VHI:HLT_IDTrack_Electron_FTF:HLT_Roi_FastElectron",
    "HLT_e26_idperf_loose_L1EM24VHI:HLT_IDTrack_Electron_IDTrig",
    "HLT_e28_idperf_loose_L1EM24VHI:HLT_IDTrack_Electron_FTF:HLT_Roi_FastElectron",
    "HLT_e28_idperf_loose_L1EM24VHI:HLT_IDTrack_Electron_IDTrig",
    "HLT_e5_idperf_loose_L1EM3:HLT_IDTrack_Electron_FTF:HLT_Roi_FastElectron",
    "HLT_e5_idperf_loose_L1EM3:HLT_IDTrack_Electron_IDTrig",
    "HLT_e5_idperf_tight_L1EM3:HLT_IDTrack_Electron_FTF:HLT_Roi_FastElectron",
    "HLT_e5_idperf_tight_L1EM3:HLT_IDTrack_Electron_IDTrig",

    "HLT_e5_idperf_loose_lrtloose_L1EM3:HLT_IDTrack_ElecLRT_FTF:HLT_Roi_FastElectron_LRT",
    "HLT_e26_idperf_loose_lrtloose_L1EM22VHI:HLT_IDTrack_ElecLRT_FTF:HLT_Roi_FastElectron_LRT",
    "HLT_e5_idperf_loose_lrtloose_L1EM3:HLT_IDTrack_ElecLRT_IDTrig:HLT_Roi_FastElectron_LRT",
    "HLT_e26_idperf_loose_lrtloose_L1EM22VHI:HLT_IDTrack_ElecLRT_IDTrig:HLT_Roi_FastElectron_LRT",

    "HLT_tau25_idperf_tracktwo_L1TAU12IM:HLT_IDTrack_TauCore_FTF:HLT_Roi_TauCore",
    "HLT_tau25_idperf_tracktwo_L1TAU12IM:HLT_IDTrack_TauIso_FTF:HLT_Roi_TauIso",
    "HLT_tau25_idperf_tracktwo_L1TAU12IM:HLT_IDTrack_Tau_IDTrig:HLT_Roi_TauIso",
    "HLT_tau25_idperf_tracktwo_L1TAU12IM:HLT_IDTrack_Tau_IDTrig:HLT_Roi_TauIso:HLT_IDVertex_Tau:post:rvtx=HLT_IDVertex_Tau",

    "HLT_j45_0eta290_020jvt_pf_ftf_boffperf_L1J20:HLT_IDTrack_Bjet_FTF",
    "HLT_j45_0eta290_020jvt_pf_ftf_boffperf_L1J20:HLT_IDTrack_Bjet_IDTrig",

    "HLT_mb_sptrk_L1RD0_FILLED:HLT_IDTrack_MinBias_IDTrig",

    "HLT_unconvtrk0_fslrt_L1J100:HLT_IDTrack_FSLRT_FTF;DTE",
    "HLT_unconvtrk0_fslrt_L1J100:HLT_IDTrack_FS_FTF;DTE",
    "HLT_unconvtrk0_fslrt_L1J100:HLT_IDTrack_FSLRT_IDTrig;DTE",

    "HLT_2mu4_bBmumux_BsmumuPhi_L12MU3V:HLT_IDTrack_Bmumux_FTF",
    "HLT_2mu4_bBmumux_BsmumuPhi_L12MU3V:HLT_IDTrack_Bmumux_IDTrig",


#endif
    "HLT_j45_subjesgscIS_ftf_boffperf_split_L1J20:HLT_IDTrack_FS_FTF:HLT_FSRoI:HLT_IDVertex_FS:post:rvtx=HLT_IDVertex_FS",
    "HLT_j45_ftf_subjesgscIS_boffperf_split_L1J20:HLT_IDTrack_FS_FTF:HLT_FSRoI:HLT_IDVertex_FS:post:rvtx=HLT_IDVertex_FS",
    "HLT_j45_ftf_L1J15:HLT_IDTrack_FS_FTF:HLT_FSRoI:HLT_IDVertex_FS:post:rvtx=HLT_IDVertex_FS",

    "HLT_j45_subjesgscIS_ftf_boffperf_split_L1J20:HLT_IDTrack_FS_FTF:HLT_FSRoI:HLT_IDVertex_FSJet:post:rvtx=HLT_IDVertex_FSJet",
    "HLT_j45_ftf_subjesgscIS_boffperf_split_L1J20:HLT_IDTrack_FS_FTF:HLT_FSRoI:HLT_IDVertex_FSJet:post:rvtx=HLT_IDVertex_FSJet",
    "HLT_j45_ftf_L1J15:HLT_IDTrack_FS_FTF:HLT_FSRoI:HLT_IDVertex_FSJet:post:rvtx=HLT_IDVertex_FSJet",




};
